The following are all executed by eval():
0
1
2
3
4
5
6
7
8
9
10
10
11
12
13
[33;1mRuntime Warning at line 74: [0mNumber of actual positional arguments(1) exceeds number of formal parameters(0)
14
[33;1mRuntime Warning at line 76: [0mNumber of actual positional arguments(3) exceeds number of formal parameters(0)
15
[33;1mRuntime Warning at line 79: [0mNumber of actual positional arguments(1) exceeds number of formal parameters(0)
