Fibonacci of 0 is 0
Fibonacci of 1 is 1
Fibonacci of 2 is 1
Fibonacci of 3 is 2
Fibonacci of 4 is 3
Fibonacci of 5 is 5
Fibonacci of 6 is 8
Fibonacci of 7 is 13
Fibonacci of 8 is 21
Fibonacci of 9 is 34
Fibonacci of 10 is 55
Fibonacci of 11 is 89
Fibonacci of 12 is 144
Fibonacci of 13 is 233
Fibonacci of 14 is 377
