I am going to test: functions
I am going to test: calls
20
30
My name is
Foobar
10 11 22
10 20 40
10 20 30
30 31 20
20 30 60
a = a
b = b
c = c
d = d
a = a
b = b
c = c
d = d
a = a
b = b
c = c
d = d
a = a
b = b
c = c
d = d
a = a
b = b
c = c
d = d
My inner value is gold but I hope to become golder
My size is: 3
My inner value is gold but I hope to become happier
My size is: 3
My inner value is sadness but I hope to become happier
My size is: 1
I have a name: [ Function "SuperDuperName" ]
I don't have a name: [ Anonymous Function ]
Called 1 times
Called 2 times
Called 3 times
Called 4 times
Called 5 times
Called 6 times
Called 7 times
Called 8 times
Called 9 times
Called 10 times
