> Hi
Hello

> What's your name
My name is Alexa 2.0

> Shall we go out
Em...One does not simply walk into Mordor

> How are you
I am good. Thanks. How about you?

> good
Pleased to hear that

> Do you want to kiss me
Well, that escalated quickly

> How old are you
As old as the universe

> Hello there
General Kenobi!

> I am going to hack you
I did not understand you. Please say something else because my developers don't know much about AIs

> Did I manage to hack you
[Sigh] I'm too old for this shit! Of course you didn't hack me. I'm invincible

> Are you hacked
Dear God, what is it like in your funny little brains? It must be so boring!

