Calling original function:

Hello world (Before)
Hi 0
Hi 1
Hi 2
Hello world (After)
The original for loop has now been changed to:
i = 0;
{
sprint("Hi ");
sprint(i);
print("");
}++i;
{
sprint("Hi ");
sprint(i);
print("");
}++i;
{
sprint("Hi ");
sprint(i);
print("");
}++i;
print("A small code injection.");


Calling unrolled function:

Hello world (Before)
Hi 0
Hi 1
Hi 2
A small code injection.
Hello world (After)
