10
[Object] [
   0 : [Object] [
       0 : My
   ]
   1 : [Object] [
       0 : name
   ]
   2 : [Object] [
       0 : is
   ]
   3 : [Object] [
       0 : manos
   ]
   4 : [Object] [
       0 : [ Function "g" ]
   ]
]
[Object] [
   "x" : [Object] [ ]
]
[Object] [
   "x" : 29
]
[Object] [
   "object" : [Object] [
       0 : string
       "string" : 0
   ]
]
[Object] [ ]
[Object] [
   0 : 10
   1 : 20
   2 : 30
]
[Object] [
   0 : 1
   1 : 2
   2 : 3
   3 : 4
   4 : 5
   5 : 6
   6 : 7
   7 : 8
   8 : 9
   9 : 10
   "sum" : 10
]
1
2
3
4
5
6
7
8
9
10
