Relation:
(1, 2) (3, 4) (1, 3) (2, 1) 
Reflexive Closure:
(1, 2) (3, 4) (1, 3) (2, 1) (1, 1) (2, 2) (3, 3) (4, 4) (5, 5) 
Reflexive-Symmetric Closure:
(1, 2) (3, 4) (1, 3) (2, 1) (4, 3) (3, 1) (1, 1) (2, 2) (3, 3) (4, 4) (5, 5) 

Relation:
(1, 1) (2, 2) (2, 1) (3, 3) (1, 2) 
Reflexive Closure:
(1, 1) (2, 2) (2, 1) (3, 3) (1, 2) (4, 4) (5, 5) 
Symmetric Closure:
(1, 1) (2, 2) (2, 1) (3, 3) (1, 2) 
