[Object] [
   "$previous" : [Object] [
       "Move" : [ Function "Move" ]
       "abs" : [ Library Function "abs" ]
       "assert" : [ Library Function "assert" ]
       "ceil" : [ Library Function "ceil" ]
       "cos" : [ Library Function "cos" ]
       "eval" : [ Library Function "eval" ]
       "file_close" : [ Library Function "file_close" ]
       "file_open" : [ Library Function "file_open" ]
       "file_read" : [ Library Function "file_read" ]
       "file_remove" : [ Library Function "file_remove" ]
       "file_write" : [ Library Function "file_write" ]
       "floor" : [ Library Function "floor" ]
       "get_time" : [ Library Function "get_time" ]
       "include" : [ Library Function "include" ]
       "input" : [ Library Function "input" ]
       "object_includes" : [ Library Function "object_includes" ]
       "object_keys" : [ Library Function "object_keys" ]
       "object_push" : [ Library Function "object_push" ]
       "object_size" : [ Library Function "object_size" ]
       "popen" : [ Library Function "popen" ]
       "pow" : [ Library Function "pow" ]
       "print" : [ Library Function "print" ]
       "rand" : [ Library Function "rand" ]
       "request" : [ Library Function "request" ]
       "round" : [ Library Function "round" ]
       "sin" : [ Library Function "sin" ]
       "sleep" : [ Library Function "sleep" ]
       "sprint" : [ Library Function "sprint" ]
       "sqrt" : [ Library Function "sqrt" ]
       "string_replace" : [ Library Function "string_replace" ]
       "string_search" : [ Library Function "string_search" ]
       "string_substr" : [ Library Function "string_substr" ]
       "string_trim" : [ Library Function "string_trim" ]
       "strlen" : [ Library Function "strlen" ]
       "tan" : [ Library Function "tan" ]
       "to_number" : [ Library Function "to_number" ]
       "to_string" : [ Library Function "to_string" ]
       "trunc" : [ Library Function "trunc" ]
       "typeof" : [ Library Function "typeof" ]
       "undef" : [ Library Function "undef" ]
   ]
   "Print" : [ Function "Print" ]
]
30
32
false
true
