. 9 . . 4 2 1 3 6 
. . . 9 6 . 4 8 5 
. . . 5 8 1 . . . 
. . 4 . . . . . . 
5 1 7 2 . . 9 . . 
6 . 2 . . . 3 7 . 
1 . . 8 . 4 . 2 . 
7 . 6 . . . 8 1 . 
3 . . . 9 . . . . 
Sudoku has a solution:
1 9 2 3 4 2 1 3 6 
3 4 5 9 6 1 4 8 5 
6 7 8 5 8 1 1 2 3 
2 1 4 4 3 5 6 7 8 
5 1 7 2 1 2 9 3 4 
6 3 2 6 7 8 3 7 1 
1 2 1 8 4 4 3 2 5 
7 5 6 1 2 3 8 1 6 
3 6 3 5 9 7 2 1 9 
