[33;1mRuntime Warning at line 18: [0mNumber of actual positional arguments(5) exceeds number of formal parameters(0)
Hi My Name Is Manos 
[33;1mRuntime Warning at line 20: [0mNumber of actual positional arguments(5) exceeds number of formal parameters(0)
Hi
My
Name
Is
Manos

[33;1mRuntime Warning at line 22: [0mNumber of actual positional arguments(5) exceeds number of formal parameters(0)
[31;1mAssertion Failed at line 9: [0mValue of boolean was evaluated to false
